<?xml version="1.0" encoding="UTF-8" standalone="no"?>
<svg
   xmlns:dc="http://purl.org/dc/elements/1.1/"
   xmlns:cc="http://creativecommons.org/ns#"
   xmlns:rdf="http://www.w3.org/1999/02/22-rdf-syntax-ns#"
   xmlns:svg="http://www.w3.org/2000/svg"
   xmlns="http://www.w3.org/2000/svg"
   xmlns:sodipodi="http://sodipodi.sourceforge.net/DTD/sodipodi-0.dtd"
   xmlns:inkscape="http://www.inkscape.org/namespaces/inkscape"
   version="1.1"
   width="789.99176"
   height="357.88901"
   viewBox="0 0 789.99174 357.88901"
   id="svg4516"
   sodipodi:docname="Aeroforces_LD.svg"
   inkscape:version="0.92.1 r15371">
  <metadata
     id="metadata4520">
    <rdf:RDF>
      <cc:Work
         rdf:about="">
        <dc:format>image/svg+xml</dc:format>
        <dc:type
           rdf:resource="http://purl.org/dc/dcmitype/StillImage" />
        <dc:title></dc:title>
      </cc:Work>
    </rdf:RDF>
  </metadata>
  <sodipodi:namedview
     pagecolor="#ffffff"
     bordercolor="#666666"
     borderopacity="1"
     objecttolerance="10"
     gridtolerance="10"
     guidetolerance="10"
     inkscape:pageopacity="0"
     inkscape:pageshadow="2"
     inkscape:window-width="1680"
     inkscape:window-height="1028"
     id="namedview4518"
     showgrid="false"
     inkscape:zoom="0.7928255"
     inkscape:cx="336.28599"
     inkscape:cy="-64.539618"
     inkscape:window-x="-8"
     inkscape:window-y="-8"
     inkscape:window-maximized="1"
     inkscape:current-layer="g4506"
     fit-margin-top="0"
     fit-margin-left="0"
     fit-margin-right="0"
     fit-margin-bottom="0" />
  <defs
     id="defs4498">
    <marker
       id="arrowSE"
       viewBox="0 0 32 32"
       refX="8"
       refY="11"
       markerUnits="strokeWidth"
       markerWidth="8"
       markerHeight="9"
       orient="auto">
      <path
         d="M 0,0 26,11 0,22 5,11 Z"
         id="path4485"
         inkscape:connector-curvature="0" />
    </marker>
    <marker
       id="arrowNW"
       viewBox="0 0 32 32"
       refX="8"
       refY="11"
       markerUnits="strokeWidth"
       markerWidth="8"
       markerHeight="9"
       orient="auto">
      <path
         d="M 26,0 0,11 26,22 21,11 Z"
         id="path4488"
         inkscape:connector-curvature="0" />
    </marker>
    <linearGradient
       id="woosh"
       gradientUnits="userSpaceOnUse"
       x1="638.77643"
       y1="428.5"
       x2="443.54681"
       y2="90.3526"
       gradientTransform="translate(-63,-6.4791676)">
      <stop
         style="stop-color:#ff9d2b;stop-opacity:1"
         offset="0"
         id="stop4491" />
      <stop
         style="stop-color:#facf6c;stop-opacity:1"
         offset="1"
         id="stop4493" />
    </linearGradient>
    <style
       type="text/css"
       id="style4496">
			text {
				font-size: 175%;
				font-family: sans-serif;
			}
		</style>
  </defs>
  <path
     style="fill:url(#woosh);stroke:#000000;stroke-width:3"
     d="m 789.25,298.77083 c 0,0 -232,-132 -492,-133 -60.174,-0.231 -119,21.617 -119,53 0,24.934 30.228,40 73,40 40,0 119.712,-10.591 224,-6 159,7 314,46 314,46 z"
     id="path4500"
     inkscape:connector-curvature="0" />
  <g
     style="fill:none;stroke:#000000;stroke-width:4"
     id="g4506"
     transform="translate(-63,-6.4791676)">
    <line
       x1="71"
       y1="220"
       x2="573"
       y2="220"
       id="line4502"
       style="marker-start:url(#arrowNW);marker-end:url(#arrowSE)" />
    <line
       x1="402"
       y1="74"
       x2="402"
       y2="305"
       id="line4504"
       style="marker-start:url(#arrowNW);marker-end:url(#arrowSE)" />
  </g>
  <text
     x="317"
     y="40.520832"
     id="text4508"
     style="font-size:53.33333206px;font-family:sans-serif;fill:#ff0000">Lift</text>
  <text
     x="561"
     y="199.52083"
     id="text4510"
     style="font-size:53.33333206px;font-family:sans-serif;fill:#ff0000">Drag</text>
  <text
     x="294"
     y="353.52084"
     id="text4512"
     style="font-size:175%;font-family:sans-serif">Weight</text>
  <text
     x="38"
     y="201.52083"
     id="text4514"
     style="font-size:175%;font-family:sans-serif">Thrust</text>
</svg>
