<?xml version="1.0" encoding="UTF-8" standalone="no"?>
<!-- Created with Inkscape (http://www.inkscape.org/) -->

<svg
   xmlns:dc="http://purl.org/dc/elements/1.1/"
   xmlns:cc="http://creativecommons.org/ns#"
   xmlns:rdf="http://www.w3.org/1999/02/22-rdf-syntax-ns#"
   xmlns:svg="http://www.w3.org/2000/svg"
   xmlns="http://www.w3.org/2000/svg"
   xmlns:sodipodi="http://sodipodi.sourceforge.net/DTD/sodipodi-0.dtd"
   xmlns:inkscape="http://www.inkscape.org/namespaces/inkscape"
   width="739.05396"
   height="382.44077"
   viewBox="0 0 195.54136 101.18745"
   version="1.1"
   id="svg8"
   inkscape:version="0.92.4 (unknown)"
   sodipodi:docname="control_scheme.svg">
  <defs
     id="defs2">
    <marker
       inkscape:isstock="true"
       style="overflow:visible"
       id="marker1593"
       refX="0"
       refY="0"
       orient="auto"
       inkscape:stockid="Arrow1Mend">
      <path
         transform="matrix(-0.4,0,0,-0.4,-4,0)"
         style="fill:#000000;fill-opacity:1;fill-rule:evenodd;stroke:#000000;stroke-width:1.00000003pt;stroke-opacity:1"
         d="M 0,0 5,-5 -12.5,0 5,5 Z"
         id="path1591"
         inkscape:connector-curvature="0" />
    </marker>
    <marker
       inkscape:stockid="Arrow1Mend"
       orient="auto"
       refY="0"
       refX="0"
       id="Arrow1Mend"
       style="overflow:visible"
       inkscape:isstock="true"
       inkscape:collect="always">
      <path
         id="path1117"
         d="M 0,0 5,-5 -12.5,0 5,5 Z"
         style="fill:#000000;fill-opacity:1;fill-rule:evenodd;stroke:#000000;stroke-width:1.00000003pt;stroke-opacity:1"
         transform="matrix(-0.4,0,0,-0.4,-4,0)"
         inkscape:connector-curvature="0" />
    </marker>
    <marker
       inkscape:stockid="Arrow1Lend"
       orient="auto"
       refY="0"
       refX="0"
       id="Arrow1Lend"
       style="overflow:visible"
       inkscape:isstock="true">
      <path
         id="path1111"
         d="M 0,0 5,-5 -12.5,0 5,5 Z"
         style="fill:#000000;fill-opacity:1;fill-rule:evenodd;stroke:#000000;stroke-width:1.00000003pt;stroke-opacity:1"
         transform="matrix(-0.8,0,0,-0.8,-10,0)"
         inkscape:connector-curvature="0" />
    </marker>
    <marker
       inkscape:isstock="true"
       style="overflow:visible"
       id="marker1593-1"
       refX="0"
       refY="0"
       orient="auto"
       inkscape:stockid="Arrow1Mend">
      <path
         inkscape:connector-curvature="0"
         transform="matrix(-0.4,0,0,-0.4,-4,0)"
         style="fill:#000000;fill-opacity:1;fill-rule:evenodd;stroke:#000000;stroke-width:1.00000003pt;stroke-opacity:1"
         d="M 0,0 5,-5 -12.5,0 5,5 Z"
         id="path1591-8" />
    </marker>
    <marker
       inkscape:isstock="true"
       style="overflow:visible"
       id="marker1593-9"
       refX="0"
       refY="0"
       orient="auto"
       inkscape:stockid="Arrow1Mend">
      <path
         inkscape:connector-curvature="0"
         transform="matrix(-0.4,0,0,-0.4,-4,0)"
         style="fill:#000000;fill-opacity:1;fill-rule:evenodd;stroke:#000000;stroke-width:1.00000003pt;stroke-opacity:1"
         d="M 0,0 5,-5 -12.5,0 5,5 Z"
         id="path1591-2" />
    </marker>
    <marker
       inkscape:isstock="true"
       style="overflow:visible"
       id="marker1593-9-2"
       refX="0"
       refY="0"
       orient="auto"
       inkscape:stockid="Arrow1Mend">
      <path
         inkscape:connector-curvature="0"
         transform="matrix(-0.4,0,0,-0.4,-4,0)"
         style="fill:#000000;fill-opacity:1;fill-rule:evenodd;stroke:#000000;stroke-width:1.00000003pt;stroke-opacity:1"
         d="M 0,0 5,-5 -12.5,0 5,5 Z"
         id="path1591-2-3" />
    </marker>
    <marker
       inkscape:isstock="true"
       style="overflow:visible"
       id="marker1593-5"
       refX="0"
       refY="0"
       orient="auto"
       inkscape:stockid="Arrow1Mend">
      <path
         inkscape:connector-curvature="0"
         transform="matrix(-0.4,0,0,-0.4,-4,0)"
         style="fill:#000000;fill-opacity:1;fill-rule:evenodd;stroke:#000000;stroke-width:1.00000003pt;stroke-opacity:1"
         d="M 0,0 5,-5 -12.5,0 5,5 Z"
         id="path1591-9" />
    </marker>
  </defs>
  <sodipodi:namedview
     id="base"
     pagecolor="#ffffff"
     bordercolor="#666666"
     borderopacity="1.0"
     inkscape:pageopacity="0.0"
     inkscape:pageshadow="2"
     inkscape:zoom="0.98994949"
     inkscape:cx="279.89145"
     inkscape:cy="173.90098"
     inkscape:document-units="mm"
     inkscape:current-layer="g1004"
     showgrid="false"
     inkscape:window-width="1920"
     inkscape:window-height="1027"
     inkscape:window-x="1366"
     inkscape:window-y="0"
     inkscape:window-maximized="1"
     units="px"
     fit-margin-top="0"
     fit-margin-left="0"
     fit-margin-right="0"
     fit-margin-bottom="0" />
  <metadata
     id="metadata5">
    <rdf:RDF>
      <cc:Work
         rdf:about="">
        <dc:format>image/svg+xml</dc:format>
        <dc:type
           rdf:resource="http://purl.org/dc/dcmitype/StillImage" />
        <dc:title></dc:title>
      </cc:Work>
    </rdf:RDF>
  </metadata>
  <g
     inkscape:label="Layer 1"
     inkscape:groupmode="layer"
     id="layer1"
     transform="translate(-8.0626522,-167.0313)">
    <g
       id="g998"
       transform="translate(2.3427999,22.376741)"
       style="fill:#00ff00">
      <rect
         y="188.14894"
         x="62.227242"
         height="18.059347"
         width="39.226013"
         id="rect815-3-1"
         style="fill:#00ff00;fill-opacity:1;stroke:#000000;stroke-width:0.5291667;stroke-miterlimit:4;stroke-dasharray:none" />
      <text
         id="text840-6-2"
         y="199.28288"
         x="81.687286"
         style="font-style:normal;font-weight:normal;font-size:5.64444447px;line-height:1.25;font-family:sans-serif;text-align:center;letter-spacing:0px;word-spacing:0px;text-anchor:middle;fill:#000000;fill-opacity:1;stroke:none;stroke-width:0.63500011;stroke-miterlimit:4;stroke-dasharray:none"
         xml:space="preserve"><tspan
           id="tspan844-3-0"
           style="font-size:5.64444447px;text-align:center;text-anchor:middle;fill:#000000;stroke-width:0.63500011;stroke-miterlimit:4;stroke-dasharray:none"
           y="199.28288"
           x="81.687286"
           sodipodi:role="line">controller</tspan></text>
    </g>
    <g
       id="g987"
       transform="translate(2.2501214,21.868083)">
      <rect
         y="145.4278"
         x="6.0771141"
         height="25.709921"
         width="52.168255"
         id="rect815"
         style="fill:none;fill-opacity:1;stroke:#000000;stroke-width:0.5291667;stroke-miterlimit:4;stroke-dasharray:none" />
      <text
         id="text840"
         y="153.33147"
         x="32.005524"
         style="font-style:normal;font-weight:normal;font-size:5.64444447px;line-height:1.25;font-family:sans-serif;text-align:center;letter-spacing:0px;word-spacing:0px;text-anchor:middle;fill:#000000;fill-opacity:1;stroke:none;stroke-width:0.63499999;stroke-miterlimit:4;stroke-dasharray:none"
         xml:space="preserve"><tspan
           style="font-size:5.64444447px;text-align:center;text-anchor:middle;stroke-width:0.63499999;stroke-miterlimit:4;stroke-dasharray:none"
           y="153.33147"
           x="32.904003"
           id="tspan838"
           sodipodi:role="line">higher level </tspan><tspan
           id="tspan842"
           style="font-size:5.64444447px;text-align:center;text-anchor:middle;stroke-width:0.63499999;stroke-miterlimit:4;stroke-dasharray:none"
           y="160.38702"
           x="32.904003"
           sodipodi:role="line">of abstraction </tspan><tspan
           id="tspan844"
           style="font-size:5.64444447px;text-align:center;text-anchor:middle;stroke-width:0.63499999;stroke-miterlimit:4;stroke-dasharray:none"
           y="167.44258"
           x="32.005524"
           sodipodi:role="line">controller</tspan></text>
    </g>
    <g
       id="g1015"
       transform="translate(8.5391306,13.849997)">
      <rect
         y="236.11559"
         x="99.223396"
         height="17.988579"
         width="52.384411"
         id="rect815-3-5"
         style="fill:none;fill-opacity:1;stroke:#000000;stroke-width:0.5291667;stroke-miterlimit:4;stroke-dasharray:none" />
      <text
         id="text840-6-6"
         y="242.97667"
         x="125.23232"
         style="font-style:normal;font-weight:normal;font-size:5.64444447px;line-height:1.25;font-family:sans-serif;text-align:center;letter-spacing:0px;word-spacing:0px;text-anchor:middle;fill:#000000;fill-opacity:1;stroke:none;stroke-width:0.63500011;stroke-miterlimit:4;stroke-dasharray:none"
         xml:space="preserve"><tspan
           id="tspan844-3-9"
           style="font-size:5.64444447px;text-align:center;text-anchor:middle;stroke-width:0.63500011;stroke-miterlimit:4;stroke-dasharray:none"
           y="242.97667"
           x="126.13081"
           sodipodi:role="line">measurements </tspan><tspan
           id="tspan905"
           style="font-size:5.64444447px;text-align:center;text-anchor:middle;stroke-width:0.63500011;stroke-miterlimit:4;stroke-dasharray:none"
           y="250.03223"
           x="125.23232"
           sodipodi:role="line">fusion/analysis</tspan></text>
    </g>
    <g
       id="g993"
       transform="translate(6.2416366,22.79448)">
      <rect
         y="187.7312"
         x="8.5567198"
         height="18.059347"
         width="39.226013"
         id="rect815-3"
         style="fill:none;fill-opacity:1;stroke:#000000;stroke-width:0.5291667;stroke-miterlimit:4;stroke-dasharray:none" />
      <text
         id="text840-6"
         y="194.79028"
         x="28.016764"
         style="font-style:normal;font-weight:normal;font-size:5.64444447px;line-height:1.25;font-family:sans-serif;text-align:center;letter-spacing:0px;word-spacing:0px;text-anchor:middle;fill:#000000;fill-opacity:1;stroke:none;stroke-width:0.63500005;stroke-miterlimit:4;stroke-dasharray:none"
         xml:space="preserve"><tspan
           id="tspan842-5"
           style="font-size:5.64444447px;text-align:center;text-anchor:middle;stroke-width:0.63500005;stroke-miterlimit:4;stroke-dasharray:none"
           y="194.79028"
           x="28.915245"
           sodipodi:role="line">trajectory </tspan><tspan
           id="tspan844-3"
           style="font-size:5.64444447px;text-align:center;text-anchor:middle;stroke-width:0.63500005;stroke-miterlimit:4;stroke-dasharray:none"
           y="201.84584"
           x="28.016764"
           sodipodi:role="line">generator</tspan></text>
    </g>
    <g
       id="g1004"
       transform="translate(1.1968588,22.270631)">
      <rect
         y="188.25505"
         x="113.14487"
         height="18.059347"
         width="39.226013"
         id="rect815-3-1-9"
         style="fill:none;fill-opacity:1;stroke:#000000;stroke-width:0.5291667;stroke-miterlimit:4;stroke-dasharray:none" />
      <text
         id="text840-6-2-3"
         y="195.86121"
         x="132.74135"
         style="font-style:normal;font-weight:normal;font-size:5.64444447px;line-height:1.25;font-family:sans-serif;text-align:center;letter-spacing:0px;word-spacing:0px;text-anchor:middle;fill:#000000;fill-opacity:1;stroke:none;stroke-width:0.63500011;stroke-miterlimit:4;stroke-dasharray:none"
         xml:space="preserve"><tspan
           id="tspan844-3-0-6"
           style="font-size:5.64444447px;text-align:center;text-anchor:middle;stroke-width:0.63500011;stroke-miterlimit:4;stroke-dasharray:none"
           y="195.86121"
           x="133.63983"
           sodipodi:role="line">lower level </tspan><tspan
           id="tspan954"
           style="font-size:5.64444447px;text-align:center;text-anchor:middle;stroke-width:0.63500011;stroke-miterlimit:4;stroke-dasharray:none"
           y="202.91676"
           x="132.74135"
           sodipodi:role="line">controllers</tspan></text>
    </g>
    <g
       id="g1009"
       transform="translate(2.2501214,22.287599)">
      <rect
         y="188.23808"
         x="161.8633"
         height="18.059347"
         width="39.226013"
         id="rect815-3-1-9-0"
         style="fill:none;fill-opacity:1;stroke:#000000;stroke-width:0.5291667;stroke-miterlimit:4;stroke-dasharray:none" />
      <text
         id="text840-6-2-3-6"
         y="198.82494"
         x="181.48044"
         style="font-style:normal;font-weight:normal;font-size:5.64444447px;line-height:1.25;font-family:sans-serif;text-align:center;letter-spacing:0px;word-spacing:0px;text-anchor:middle;fill:#000000;fill-opacity:1;stroke:none;stroke-width:0.63500011;stroke-miterlimit:4;stroke-dasharray:none"
         xml:space="preserve"><tspan
           id="tspan954-6"
           style="font-size:5.64444447px;text-align:center;text-anchor:middle;stroke-width:0.63500011;stroke-miterlimit:4;stroke-dasharray:none"
           y="198.82494"
           x="181.48044"
           sodipodi:role="line">flying robot</tspan></text>
    </g>
    <path
       style="fill:none;stroke:#000000;stroke-width:0.5291667;stroke-linecap:butt;stroke-linejoin:miter;stroke-miterlimit:4;stroke-dasharray:none;stroke-opacity:1;marker-end:url(#Arrow1Mend)"
       d="m 34.411363,192.7649 v 16.57071"
       id="path1106"
       inkscape:connector-curvature="0"
       sodipodi:nodetypes="cc" />
    <path
       sodipodi:nodetypes="cc"
       inkscape:connector-curvature="0"
       id="path1589"
       d="m 54.055673,219.59621 9.421251,-0.0668"
       style="fill:none;stroke:#000000;stroke-width:0.5291667;stroke-linecap:butt;stroke-linejoin:miter;stroke-miterlimit:4;stroke-dasharray:none;stroke-opacity:1;marker-end:url(#marker1593)" />
    <path
       sodipodi:nodetypes="cc"
       inkscape:connector-curvature="0"
       id="path1589-7"
       d="m 103.72055,219.59621 9.42125,-0.0668"
       style="fill:none;stroke:#000000;stroke-width:0.52916676;stroke-linecap:butt;stroke-linejoin:miter;stroke-miterlimit:4;stroke-dasharray:none;stroke-opacity:1;marker-end:url(#marker1593-1)" />
    <path
       sodipodi:nodetypes="cc"
       inkscape:connector-curvature="0"
       id="path1589-0"
       d="m 153.61341,219.59621 9.42125,-0.0668"
       style="fill:none;stroke:#000000;stroke-width:0.52916676;stroke-linecap:butt;stroke-linejoin:miter;stroke-miterlimit:4;stroke-dasharray:none;stroke-opacity:1;marker-end:url(#marker1593-9)" />
    <path
       sodipodi:nodetypes="ccc"
       inkscape:connector-curvature="0"
       id="path1589-0-7"
       d="m 183.59483,228.3526 -0.22577,31.074 -22.42531,-0.004"
       style="fill:none;stroke:#000000;stroke-width:0.52916682;stroke-linecap:butt;stroke-linejoin:miter;stroke-miterlimit:4;stroke-dasharray:none;stroke-opacity:1;marker-end:url(#marker1593-9-2)" />
    <path
       sodipodi:nodetypes="ccc"
       inkscape:connector-curvature="0"
       id="path1589-2"
       d="m 107.42302,259.35587 -22.991721,0.44373 0.07336,-30.57836"
       style="fill:none;stroke:#000000;stroke-width:0.52916676;stroke-linecap:butt;stroke-linejoin:miter;stroke-miterlimit:4;stroke-dasharray:none;stroke-opacity:1;marker-end:url(#marker1593-5)" />
  </g>
</svg>
